%YAML 1.1
%TAG !u! tag:unity3d.com,2011:
--- !u!65 &2186398626585920880
BoxCollider:
  m_ObjectHideFlags: 0
  m_CorrespondingSourceObject: {fileID: 0}
  m_PrefabInstance: {fileID: 0}
  m_PrefabAsset: {fileID: 0}
  m_GameObject: {fileID: 1423460440883930968}
  m_Material: {fileID: 0}
  m_IsTrigger: 1
  m_Enabled: 1
  serializedVersion: 2
  m_Size: {x: 0.53200483, y: 0.51782304, z: 0.0981678}
  m_Center: {x: 0, y: 0, z: 0}
--- !u!1 &2503425084551292922
GameObject:
  m_ObjectHideFlags: 0
  m_CorrespondingSourceObject: {fileID: 0}
  m_PrefabInstance: {fileID: 0}
  m_PrefabAsset: {fileID: 0}
  serializedVersion: 6
  m_Component:
  - component: {fileID: 6669099300921386866}
  - component: {fileID: 114115129251110054}
  m_Layer: 0
  m_Name: Coin
  m_TagString: Coin
  m_Icon: {fileID: 0}
  m_NavMeshLayer: 0
  m_StaticEditorFlags: 0
  m_IsActive: 1
--- !u!4 &6669099300921386866
Transform:
  m_ObjectHideFlags: 0
  m_CorrespondingSourceObject: {fileID: 0}
  m_PrefabInstance: {fileID: 0}
  m_PrefabAsset: {fileID: 0}
  m_GameObject: {fileID: 2503425084551292922}
  m_LocalRotation: {x: 0, y: 0, z: 0, w: 1}
  m_LocalPosition: {x: 0, y: 0, z: 0}
  m_LocalScale: {x: 1, y: 1, z: 1}
  m_Children:
  - {fileID: 1423460440883772280}
  m_Father: {fileID: 0}
  m_RootOrder: 0
  m_LocalEulerAnglesHint: {x: 0, y: 0, z: 0}
--- !u!114 &114115129251110054
MonoBehaviour:
  m_ObjectHideFlags: 0
  m_CorrespondingSourceObject: {fileID: 0}
  m_PrefabInstance: {fileID: 0}
  m_PrefabAsset: {fileID: 0}
  m_GameObject: {fileID: 2503425084551292922}
  m_Enabled: 1
  m_EditorHideFlags: 0
  m_Script: {fileID: 11500000, guid: ae7b1c4c2cb399c41b9e7f9126783711, type: 3}
  m_Name: 
  m_EditorClassIdentifier: 
--- !u!1001 &1423460440883896824
PrefabInstance:
  m_ObjectHideFlags: 0
  serializedVersion: 2
  m_Modification:
    m_TransformParent: {fileID: 6669099300921386866}
    m_Modifications:
    - target: {fileID: 100000, guid: 73874cb76131d954bbdbec46f14b6cb3, type: 3}
      propertyPath: m_Name
      value: Star
      objectReference: {fileID: 0}
    - target: {fileID: 100000, guid: 73874cb76131d954bbdbec46f14b6cb3, type: 3}
      propertyPath: m_TagString
      value: Coin
      objectReference: {fileID: 0}
    - target: {fileID: 100000, guid: 73874cb76131d954bbdbec46f14b6cb3, type: 3}
      propertyPath: m_StaticEditorFlags
      value: 0
      objectReference: {fileID: 0}
    - target: {fileID: 400000, guid: 73874cb76131d954bbdbec46f14b6cb3, type: 3}
      propertyPath: m_LocalPosition.x
      value: 0
      objectReference: {fileID: 0}
    - target: {fileID: 400000, guid: 73874cb76131d954bbdbec46f14b6cb3, type: 3}
      propertyPath: m_LocalPosition.y
      value: 0.5
      objectReference: {fileID: 0}
    - target: {fileID: 400000, guid: 73874cb76131d954bbdbec46f14b6cb3, type: 3}
      propertyPath: m_LocalPosition.z
      value: 0
      objectReference: {fileID: 0}
    - target: {fileID: 400000, guid: 73874cb76131d954bbdbec46f14b6cb3, type: 3}
      propertyPath: m_LocalRotation.x
      value: -0
      objectReference: {fileID: 0}
    - target: {fileID: 400000, guid: 73874cb76131d954bbdbec46f14b6cb3, type: 3}
      propertyPath: m_LocalRotation.y
      value: -0
      objectReference: {fileID: 0}
    - target: {fileID: 400000, guid: 73874cb76131d954bbdbec46f14b6cb3, type: 3}
      propertyPath: m_LocalRotation.z
      value: -0
      objectReference: {fileID: 0}
    - target: {fileID: 400000, guid: 73874cb76131d954bbdbec46f14b6cb3, type: 3}
      propertyPath: m_LocalRotation.w
      value: 1
      objectReference: {fileID: 0}
    - target: {fileID: 400000, guid: 73874cb76131d954bbdbec46f14b6cb3, type: 3}
      propertyPath: m_RootOrder
      value: 0
      objectReference: {fileID: 0}
    - target: {fileID: 400000, guid: 73874cb76131d954bbdbec46f14b6cb3, type: 3}
      propertyPath: m_LocalEulerAnglesHint.x
      value: 0
      objectReference: {fileID: 0}
    - target: {fileID: 400000, guid: 73874cb76131d954bbdbec46f14b6cb3, type: 3}
      propertyPath: m_LocalEulerAnglesHint.y
      value: 0
      objectReference: {fileID: 0}
    - target: {fileID: 400000, guid: 73874cb76131d954bbdbec46f14b6cb3, type: 3}
      propertyPath: m_LocalEulerAnglesHint.z
      value: 0
      objectReference: {fileID: 0}
    - target: {fileID: 2300000, guid: 73874cb76131d954bbdbec46f14b6cb3, type: 3}
      propertyPath: m_Enabled
      value: 1
      objectReference: {fileID: 0}
    m_RemovedComponents: []
  m_SourcePrefab: {fileID: 100100000, guid: 73874cb76131d954bbdbec46f14b6cb3, type: 3}
--- !u!1 &1423460440883930968 stripped
GameObject:
  m_CorrespondingSourceObject: {fileID: 100000, guid: 73874cb76131d954bbdbec46f14b6cb3,
    type: 3}
  m_PrefabInstance: {fileID: 1423460440883896824}
  m_PrefabAsset: {fileID: 0}
--- !u!4 &1423460440883772280 stripped
Transform:
  m_CorrespondingSourceObject: {fileID: 400000, guid: 73874cb76131d954bbdbec46f14b6cb3,
    type: 3}
  m_PrefabInstance: {fileID: 1423460440883896824}
  m_PrefabAsset: {fileID: 0}
